{
  "error": "no such element",
  "message": "no such element: Unable to locate element: {\"method\":\"css selector\",\"selector\":\"a[href=\"https://wldmrcdev.wpengine.com/site-map/\"]\"}\n  (Session info: chrome=104.0.5112.102)",
  "stacktrace": "Backtrace:\n\tOrdinal0 [0x00BD6463+2188387]\n\tOrdinal0 [0x00B6E461+1762401]\n\tOrdinal0 [0x00A83D78+802168]\n\tOrdinal0 [0x00AB1880+989312]\n\tOrdinal0 [0x00AB1B1B+989979]\n\tOrdinal0 [0x00ADE912+1173778]\n\tOrdinal0 [0x00ACC824+1099812]\n\tOrdinal0 [0x00ADCC22+1166370]\n\tOrdinal0 [0x00ACC5F6+1099254]\n\tOrdinal0 [0x00AA6BE0+945120]\n\tOrdinal0 [0x00AA7AD6+948950]\n\tGetHandleVerifier [0x00E771F2+2712546]\n\tGetHandleVerifier [0x00E6886D+2652765]\n\tGetHandleVerifier [0x00C6002A+520730]\n\tGetHandleVerifier [0x00C5EE06+516086]\n\tOrdinal0 [0x00B7468B+1787531]\n\tOrdinal0 [0x00B78E88+1805960]\n\tOrdinal0 [0x00B78F75+1806197]\n\tOrdinal0 [0x00B81DF1+1842673]\n\tBaseThreadInitThunk [0x768CFA29+25]\n\tRtlGetAppContainerNamedObjectPath [0x77037A9E+286]\n\tRtlGetAppContainerNamedObjectPath [0x77037A6E+238]\n"
}